CITEseq-HIVE Seurat Cluster and ID cell types with Multimodal Data
…
# run ScType
es.max <- sctype_score(scRNAseqData = scRNAseqData_scaled, scaled = TRUE, gs = gs_list$gs_positive, gs2 = gs_list$gs_negative)

# merge by cluster
cL_resutls <- do.call("rbind", lapply(unique(Idents(obj)), function(cl){
  es.max.cl = sort(rowSums(es.max[ ,rownames(obj@meta.data[Idents(obj)==cl, ])]), decreasing = !0)
  head(data.frame(cluster = cl, type = names(es.max.cl), scores = es.max.cl, ncells = sum(Idents(obj)==cl)), 10)
}))
sctype_scores <- cL_resutls %>% group_by(cluster) %>% top_n(n = 1, wt = scores)  

# set low-confident (low ScType score) clusters to "unknown"
sctype_scores$type[as.numeric(as.character(sctype_scores$scores)) < sctype_scores$ncells/4] <- "Unknown"
print(sctype_scores)

# A tibble: 25 × 4
# Groups:   cluster [22]
   cluster type                        scores ncells
   <fct>   <chr>                        <dbl>  <int>
 1 4       Naive CD4+ T cells           2605.   4688
 2 1       Effector CD8+ T cells        7486.   5474
 3 3       Naive CD4+ T cells           2798.   5058
 4 15      Naive B cells                5466.   1952
 5 15      Memory B cells               5466.   1952
 6 9       Natural killer  cells       11694.   3086
 7 14      Myeloid Dendritic cells      3563.   2000
 8 7       CD4+ NKT-like cells          2599.   3877
 9 13      Natural killer  cells        6032.   2388
10 11      ISG expressing immune cells  1918.   2983
# ℹ 15 more rows
…
quartz_off_screen 
                2 

Determine marker expression by cluster

Find markers for every cell cluster compared to all remaining cells, report only the positive ones.

obj.markers.adt <- FindAllMarkers(obj, only.pos = TRUE, min.pct = 0.25, logfc.threshold = 0.25)

obj.markers.adt %>%
  group_by(cluster) %>%
  dplyr::filter(avg_log2FC > 1)

# A tibble: 158 × 7
# Groups:   cluster [16]
   p_val avg_log2FC pct.1 pct.2 p_val_adj cluster gene        
   <dbl>      <dbl> <dbl> <dbl>     <dbl> <fct>   <chr>       
 1     0       1.69 0.993 0.764         0 0       CD4-RPA.T4  
 2     0       1.84 0.73  0.503         0 0       CD194       
 3     0       1.26 0.94  0.723         0 0       HuMsRt.CD278
 4     0       1.32 0.845 0.641         0 0       CD26        
 5     0       1.25 0.994 0.805         0 0       CD5         
 6     0       1.00 0.973 0.856         0 0       CD127       
 7     0       1.23 0.999 0.9           0 0       CD28        
 8     0       3.67 0.787 0.141         0 1       CD20-2H7    
 9     0       3.64 0.922 0.349         0 1       CD72        
10     0       3.18 0.965 0.394         0 1       CD268       
# ℹ 148 more rows
…
# run ScType
es.max.adt <- sctype_score(scRNAseqData = scRNAseqData_scaled.adt, scaled = TRUE, gs = gs_list$gs_positive, gs2 = gs_list$gs_negative)

# merge by cluster
cL_resutls.adt <- do.call("rbind", lapply(unique(obj@meta.data$seurat_clusters), function(cl){
  es.max.cl.adt = sort(rowSums(es.max.adt[ ,rownames(obj@meta.data[obj@meta.data$seurat_clusters==cl, ])]), decreasing = !0)
  head(data.frame(cluster = cl, type = names(es.max.cl.adt), scores = es.max.cl.adt, ncells = sum(obj@meta.data$seurat_clusters==cl)), 10)
}))
sctype_scores.adt <- cL_resutls.adt %>% group_by(cluster) %>% top_n(n = 1, wt = scores)  

# set low-confident (low ScType score) clusters to "unknown"
sctype_scores.adt$type[as.numeric(as.character(sctype_scores.adt$scores)) < sctype_scores.adt$ncells/4] <- "Unknown"
print(sctype_scores.adt[,1:3])

# A tibble: 48 × 3
# Groups:   cluster [38]
   cluster type                        scores
   <fct>   <chr>                        <dbl>
 1 0       CD8a/a                       6747.
 2 0       Treg(diff)                   6747.
 3 8       ILC2                         3711.
 4 8       MAIT cells                   3711.
 5 35      Classical monocytes           197.
 6 35      Intermediate monocytes        197.
 7 23      Tem/Temra cytotoxic T cells   409.
 8 10      pDC                          5257.
 9 5       Cycling B cells              9049.
10 6       Unknown                       140.
# ℹ 38 more rows
…
